%YAML 1.1
%TAG !u! tag:unity3d.com,2011:
--- !u!29 &1
OcclusionCullingSettings:
  m_ObjectHideFlags: 0
  serializedVersion: 2
  m_OcclusionBakeSettings:
    smallestOccluder: 5
    smallestHole: 0.25
    backfaceThreshold: 100
  m_SceneGUID: 00000000000000000000000000000000
  m_OcclusionCullingData: {fileID: 0}
--- !u!104 &2
RenderSettings:
  m_ObjectHideFlags: 0
  serializedVersion: 8
  m_Fog: 0
  m_FogColor: {r: 0.5, g: 0.5, b: 0.5, a: 1}
  m_FogMode: 3
  m_FogDensity: 0.01
  m_LinearFogStart: 0
  m_LinearFogEnd: 300
  m_AmbientSkyColor: {r: 0.212, g: 0.227, b: 0.259, a: 1}
  m_AmbientEquatorColor: {r: 0.114, g: 0.125, b: 0.133, a: 1}
  m_AmbientGroundColor: {r: 0.047, g: 0.043, b: 0.035, a: 1}
  m_AmbientIntensity: 1
  m_AmbientMode: 0
  m_SubtractiveShadowColor: {r: 0.42, g: 0.478, b: 0.627, a: 1}
  m_SkyboxMaterial: {fileID: 10304, guid: 0000000000000000f000000000000000, type: 0}
  m_HaloStrength: 0.5
  m_FlareStrength: 1
  m_FlareFadeSpeed: 3
  m_HaloTexture: {fileID: 0}
  m_SpotCookie: {fileID: 10001, guid: 0000000000000000e000000000000000, type: 0}
  m_DefaultReflectionMode: 0
  m_DefaultReflectionResolution: 128
  m_ReflectionBounces: 1
  m_ReflectionIntensity: 1
  m_CustomReflection: {fileID: 0}
  m_Sun: {fileID: 0}
  m_IndirectSpecularColor: {r: 0.37311953, g: 0.38074014, b: 0.3587274, a: 1}
--- !u!157 &3
LightmapSettings:
  m_ObjectHideFlags: 0
  serializedVersion: 11
  m_GIWorkflowMode: 0
  m_GISettings:
    serializedVersion: 2
    m_BounceScale: 1
    m_IndirectOutputScale: 1
    m_AlbedoBoost: 1
    m_TemporalCoherenceThreshold: 1
    m_EnvironmentLightingMode: 0
    m_EnableBakedLightmaps: 1
    m_EnableRealtimeLightmaps: 1
  m_LightmapEditorSettings:
    serializedVersion: 9
    m_Resolution: 2
    m_BakeResolution: 40
    m_TextureWidth: 1024
    m_TextureHeight: 1024
    m_AO: 0
    m_AOMaxDistance: 1
    m_CompAOExponent: 1
    m_CompAOExponentDirect: 0
    m_Padding: 2
    m_LightmapParameters: {fileID: 0}
    m_LightmapsBakeMode: 1
    m_TextureCompression: 1
    m_FinalGather: 0
    m_FinalGatherFiltering: 1
    m_FinalGatherRayCount: 256
    m_ReflectionCompression: 2
    m_MixedBakeMode: 2
    m_BakeBackend: 1
    m_PVRSampling: 1
    m_PVRDirectSampleCount: 32
    m_PVRSampleCount: 500
    m_PVRBounces: 2
    m_PVRFilterTypeDirect: 0
    m_PVRFilterTypeIndirect: 0
    m_PVRFilterTypeAO: 0
    m_PVRFilteringMode: 1
    m_PVRCulling: 1
    m_PVRFilteringGaussRadiusDirect: 1
    m_PVRFilteringGaussRadiusIndirect: 5
    m_PVRFilteringGaussRadiusAO: 2
    m_PVRFilteringAtrousPositionSigmaDirect: 0.5
    m_PVRFilteringAtrousPositionSigmaIndirect: 2
    m_PVRFilteringAtrousPositionSigmaAO: 1
    m_ShowResolutionOverlay: 1
  m_LightingDataAsset: {fileID: 0}
  m_UseShadowmask: 1
--- !u!196 &4
NavMeshSettings:
  serializedVersion: 2
  m_ObjectHideFlags: 0
  m_BuildSettings:
    serializedVersion: 2
    agentTypeID: 0
    agentRadius: 0.5
    agentHeight: 2
    agentSlope: 45
    agentClimb: 0.4
    ledgeDropHeight: 0
    maxJumpAcrossDistance: 0
    minRegionArea: 2
    manualCellSize: 0
    cellSize: 0.16666667
    manualTileSize: 0
    tileSize: 256
    accuratePlacement: 0
    debug:
      m_Flags: 0
  m_NavMeshData: {fileID: 0}
--- !u!1001 &543644735
Prefab:
  m_ObjectHideFlags: 0
  serializedVersion: 2
  m_Modification:
    m_TransformParent: {fileID: 0}
    m_Modifications:
    - target: {fileID: 4625664114823014, guid: 97ccffab2bf7d3f4e87e812eee2b593c, type: 2}
      propertyPath: m_LocalPosition.x
      value: -0.42
      objectReference: {fileID: 0}
    - target: {fileID: 4625664114823014, guid: 97ccffab2bf7d3f4e87e812eee2b593c, type: 2}
      propertyPath: m_LocalPosition.y
      value: 3.2
      objectReference: {fileID: 0}
    - target: {fileID: 4625664114823014, guid: 97ccffab2bf7d3f4e87e812eee2b593c, type: 2}
      propertyPath: m_LocalPosition.z
      value: -0.18
      objectReference: {fileID: 0}
    - target: {fileID: 4625664114823014, guid: 97ccffab2bf7d3f4e87e812eee2b593c, type: 2}
      propertyPath: m_LocalRotation.x
      value: 0
      objectReference: {fileID: 0}
    - target: {fileID: 4625664114823014, guid: 97ccffab2bf7d3f4e87e812eee2b593c, type: 2}
      propertyPath: m_LocalRotation.y
      value: 1
      objectReference: {fileID: 0}
    - target: {fileID: 4625664114823014, guid: 97ccffab2bf7d3f4e87e812eee2b593c, type: 2}
      propertyPath: m_LocalRotation.z
      value: 0
      objectReference: {fileID: 0}
    - target: {fileID: 4625664114823014, guid: 97ccffab2bf7d3f4e87e812eee2b593c, type: 2}
      propertyPath: m_LocalRotation.w
      value: 0
      objectReference: {fileID: 0}
    - target: {fileID: 4625664114823014, guid: 97ccffab2bf7d3f4e87e812eee2b593c, type: 2}
      propertyPath: m_RootOrder
      value: 5
      objectReference: {fileID: 0}
    - target: {fileID: 1687074315377416, guid: 97ccffab2bf7d3f4e87e812eee2b593c, type: 2}
      propertyPath: m_Name
      value: CardSquirtle
      objectReference: {fileID: 0}
    - target: {fileID: 114105795695077434, guid: 97ccffab2bf7d3f4e87e812eee2b593c,
        type: 2}
      propertyPath: totalManaRequest
      value: 3
      objectReference: {fileID: 0}
    - target: {fileID: 114105795695077434, guid: 97ccffab2bf7d3f4e87e812eee2b593c,
        type: 2}
      propertyPath: imgCard
      value: 
      objectReference: {fileID: 2800000, guid: 8de8fcba9e1e12547a2fc680daf02012, type: 3}
    - target: {fileID: 114105795695077434, guid: 97ccffab2bf7d3f4e87e812eee2b593c,
        type: 2}
      propertyPath: nameCard
      value: Squirtle
      objectReference: {fileID: 0}
    - target: {fileID: 114105795695077434, guid: 97ccffab2bf7d3f4e87e812eee2b593c,
        type: 2}
      propertyPath: attackPower
      value: 4
      objectReference: {fileID: 0}
    - target: {fileID: 114825248847322750, guid: 97ccffab2bf7d3f4e87e812eee2b593c,
        type: 2}
      propertyPath: totalLife
      value: 15
      objectReference: {fileID: 0}
    m_RemovedComponents: []
  m_ParentPrefab: {fileID: 100100000, guid: 97ccffab2bf7d3f4e87e812eee2b593c, type: 2}
  m_IsPrefabParent: 0
--- !u!1001 &806442845
Prefab:
  m_ObjectHideFlags: 0
  serializedVersion: 2
  m_Modification:
    m_TransformParent: {fileID: 0}
    m_Modifications:
    - target: {fileID: 4625664114823014, guid: 97ccffab2bf7d3f4e87e812eee2b593c, type: 2}
      propertyPath: m_LocalPosition.x
      value: -0.42
      objectReference: {fileID: 0}
    - target: {fileID: 4625664114823014, guid: 97ccffab2bf7d3f4e87e812eee2b593c, type: 2}
      propertyPath: m_LocalPosition.y
      value: 3.2
      objectReference: {fileID: 0}
    - target: {fileID: 4625664114823014, guid: 97ccffab2bf7d3f4e87e812eee2b593c, type: 2}
      propertyPath: m_LocalPosition.z
      value: -0.18
      objectReference: {fileID: 0}
    - target: {fileID: 4625664114823014, guid: 97ccffab2bf7d3f4e87e812eee2b593c, type: 2}
      propertyPath: m_LocalRotation.x
      value: 0
      objectReference: {fileID: 0}
    - target: {fileID: 4625664114823014, guid: 97ccffab2bf7d3f4e87e812eee2b593c, type: 2}
      propertyPath: m_LocalRotation.y
      value: 1
      objectReference: {fileID: 0}
    - target: {fileID: 4625664114823014, guid: 97ccffab2bf7d3f4e87e812eee2b593c, type: 2}
      propertyPath: m_LocalRotation.z
      value: 0
      objectReference: {fileID: 0}
    - target: {fileID: 4625664114823014, guid: 97ccffab2bf7d3f4e87e812eee2b593c, type: 2}
      propertyPath: m_LocalRotation.w
      value: 0
      objectReference: {fileID: 0}
    - target: {fileID: 4625664114823014, guid: 97ccffab2bf7d3f4e87e812eee2b593c, type: 2}
      propertyPath: m_RootOrder
      value: 4
      objectReference: {fileID: 0}
    - target: {fileID: 1687074315377416, guid: 97ccffab2bf7d3f4e87e812eee2b593c, type: 2}
      propertyPath: m_Name
      value: CardBulbA
      objectReference: {fileID: 0}
    - target: {fileID: 114825248847322750, guid: 97ccffab2bf7d3f4e87e812eee2b593c,
        type: 2}
      propertyPath: totalLife
      value: 10
      objectReference: {fileID: 0}
    - target: {fileID: 114105795695077434, guid: 97ccffab2bf7d3f4e87e812eee2b593c,
        type: 2}
      propertyPath: totalManaRequest
      value: 2
      objectReference: {fileID: 0}
    - target: {fileID: 114105795695077434, guid: 97ccffab2bf7d3f4e87e812eee2b593c,
        type: 2}
      propertyPath: nameCard
      value: BulbA
      objectReference: {fileID: 0}
    - target: {fileID: 114105795695077434, guid: 97ccffab2bf7d3f4e87e812eee2b593c,
        type: 2}
      propertyPath: imgCard
      value: 
      objectReference: {fileID: 2800000, guid: e6cabc6df41dcd84fafa07049f31ff5b, type: 3}
    - target: {fileID: 114105795695077434, guid: 97ccffab2bf7d3f4e87e812eee2b593c,
        type: 2}
      propertyPath: attackPower
      value: 5
      objectReference: {fileID: 0}
    m_RemovedComponents: []
  m_ParentPrefab: {fileID: 100100000, guid: 97ccffab2bf7d3f4e87e812eee2b593c, type: 2}
  m_IsPrefabParent: 0
--- !u!1001 &1588017932
Prefab:
  m_ObjectHideFlags: 0
  serializedVersion: 2
  m_Modification:
    m_TransformParent: {fileID: 0}
    m_Modifications:
    - target: {fileID: 4625664114823014, guid: 97ccffab2bf7d3f4e87e812eee2b593c, type: 2}
      propertyPath: m_LocalPosition.x
      value: -0.39
      objectReference: {fileID: 0}
    - target: {fileID: 4625664114823014, guid: 97ccffab2bf7d3f4e87e812eee2b593c, type: 2}
      propertyPath: m_LocalPosition.y
      value: 0.3
      objectReference: {fileID: 0}
    - target: {fileID: 4625664114823014, guid: 97ccffab2bf7d3f4e87e812eee2b593c, type: 2}
      propertyPath: m_LocalPosition.z
      value: -6.37
      objectReference: {fileID: 0}
    - target: {fileID: 4625664114823014, guid: 97ccffab2bf7d3f4e87e812eee2b593c, type: 2}
      propertyPath: m_LocalRotation.x
      value: 0
      objectReference: {fileID: 0}
    - target: {fileID: 4625664114823014, guid: 97ccffab2bf7d3f4e87e812eee2b593c, type: 2}
      propertyPath: m_LocalRotation.y
      value: 1
      objectReference: {fileID: 0}
    - target: {fileID: 4625664114823014, guid: 97ccffab2bf7d3f4e87e812eee2b593c, type: 2}
      propertyPath: m_LocalRotation.z
      value: 0
      objectReference: {fileID: 0}
    - target: {fileID: 4625664114823014, guid: 97ccffab2bf7d3f4e87e812eee2b593c, type: 2}
      propertyPath: m_LocalRotation.w
      value: 0
      objectReference: {fileID: 0}
    - target: {fileID: 4625664114823014, guid: 97ccffab2bf7d3f4e87e812eee2b593c, type: 2}
      propertyPath: m_RootOrder
      value: 1
      objectReference: {fileID: 0}
    - target: {fileID: 1687074315377416, guid: 97ccffab2bf7d3f4e87e812eee2b593c, type: 2}
      propertyPath: m_Name
      value: CardAzulPistola
      objectReference: {fileID: 0}
    - target: {fileID: 114105795695077434, guid: 97ccffab2bf7d3f4e87e812eee2b593c,
        type: 2}
      propertyPath: imgCard
      value: 
      objectReference: {fileID: 2800000, guid: 6d50074e2f2ba614a9bb4b045f5cc93a, type: 3}
    - target: {fileID: 114105795695077434, guid: 97ccffab2bf7d3f4e87e812eee2b593c,
        type: 2}
      propertyPath: totalManaRequest
      value: 2
      objectReference: {fileID: 0}
    - target: {fileID: 114105795695077434, guid: 97ccffab2bf7d3f4e87e812eee2b593c,
        type: 2}
      propertyPath: attackPower
      value: 3
      objectReference: {fileID: 0}
    - target: {fileID: 114825248847322750, guid: 97ccffab2bf7d3f4e87e812eee2b593c,
        type: 2}
      propertyPath: totalLife
      value: 5
      objectReference: {fileID: 0}
    - target: {fileID: 114105795695077434, guid: 97ccffab2bf7d3f4e87e812eee2b593c,
        type: 2}
      propertyPath: nameCard
      value: Azul Pistola
      objectReference: {fileID: 0}
    m_RemovedComponents: []
  m_ParentPrefab: {fileID: 100100000, guid: 97ccffab2bf7d3f4e87e812eee2b593c, type: 2}
  m_IsPrefabParent: 0
--- !u!1001 &1766974560
Prefab:
  m_ObjectHideFlags: 0
  serializedVersion: 2
  m_Modification:
    m_TransformParent: {fileID: 0}
    m_Modifications:
    - target: {fileID: 4625664114823014, guid: 97ccffab2bf7d3f4e87e812eee2b593c, type: 2}
      propertyPath: m_LocalPosition.x
      value: 6.93
      objectReference: {fileID: 0}
    - target: {fileID: 4625664114823014, guid: 97ccffab2bf7d3f4e87e812eee2b593c, type: 2}
      propertyPath: m_LocalPosition.y
      value: 0.3
      objectReference: {fileID: 0}
    - target: {fileID: 4625664114823014, guid: 97ccffab2bf7d3f4e87e812eee2b593c, type: 2}
      propertyPath: m_LocalPosition.z
      value: -5.6
      objectReference: {fileID: 0}
    - target: {fileID: 4625664114823014, guid: 97ccffab2bf7d3f4e87e812eee2b593c, type: 2}
      propertyPath: m_LocalRotation.x
      value: 0
      objectReference: {fileID: 0}
    - target: {fileID: 4625664114823014, guid: 97ccffab2bf7d3f4e87e812eee2b593c, type: 2}
      propertyPath: m_LocalRotation.y
      value: 1
      objectReference: {fileID: 0}
    - target: {fileID: 4625664114823014, guid: 97ccffab2bf7d3f4e87e812eee2b593c, type: 2}
      propertyPath: m_LocalRotation.z
      value: 0
      objectReference: {fileID: 0}
    - target: {fileID: 4625664114823014, guid: 97ccffab2bf7d3f4e87e812eee2b593c, type: 2}
      propertyPath: m_LocalRotation.w
      value: 0
      objectReference: {fileID: 0}
    - target: {fileID: 4625664114823014, guid: 97ccffab2bf7d3f4e87e812eee2b593c, type: 2}
      propertyPath: m_RootOrder
      value: 3
      objectReference: {fileID: 0}
    - target: {fileID: 114105795695077434, guid: 97ccffab2bf7d3f4e87e812eee2b593c,
        type: 2}
      propertyPath: imgCard
      value: 
      objectReference: {fileID: 2800000, guid: 6678df4110cddae46a138838ccd8db34, type: 3}
    - target: {fileID: 114105795695077434, guid: 97ccffab2bf7d3f4e87e812eee2b593c,
        type: 2}
      propertyPath: nameCard
      value: Dragon Nightly
      objectReference: {fileID: 0}
    - target: {fileID: 1687074315377416, guid: 97ccffab2bf7d3f4e87e812eee2b593c, type: 2}
      propertyPath: m_Name
      value: CardDK
      objectReference: {fileID: 0}
    - target: {fileID: 114825248847322750, guid: 97ccffab2bf7d3f4e87e812eee2b593c,
        type: 2}
      propertyPath: totalLife
      value: 9
      objectReference: {fileID: 0}
    - target: {fileID: 114105795695077434, guid: 97ccffab2bf7d3f4e87e812eee2b593c,
        type: 2}
      propertyPath: attackPower
      value: 3
      objectReference: {fileID: 0}
    - target: {fileID: 114105795695077434, guid: 97ccffab2bf7d3f4e87e812eee2b593c,
        type: 2}
      propertyPath: totalManaRequest
      value: 5
      objectReference: {fileID: 0}
    m_RemovedComponents: []
  m_ParentPrefab: {fileID: 100100000, guid: 97ccffab2bf7d3f4e87e812eee2b593c, type: 2}
  m_IsPrefabParent: 0
--- !u!1001 &1947581220
Prefab:
  m_ObjectHideFlags: 0
  serializedVersion: 2
  m_Modification:
    m_TransformParent: {fileID: 0}
    m_Modifications:
    - target: {fileID: 4625664114823014, guid: 97ccffab2bf7d3f4e87e812eee2b593c, type: 2}
      propertyPath: m_LocalPosition.x
      value: 6.74
      objectReference: {fileID: 0}
    - target: {fileID: 4625664114823014, guid: 97ccffab2bf7d3f4e87e812eee2b593c, type: 2}
      propertyPath: m_LocalPosition.y
      value: 0.3
      objectReference: {fileID: 0}
    - target: {fileID: 4625664114823014, guid: 97ccffab2bf7d3f4e87e812eee2b593c, type: 2}
      propertyPath: m_LocalPosition.z
      value: -2.22
      objectReference: {fileID: 0}
    - target: {fileID: 4625664114823014, guid: 97ccffab2bf7d3f4e87e812eee2b593c, type: 2}
      propertyPath: m_LocalRotation.x
      value: 0
      objectReference: {fileID: 0}
    - target: {fileID: 4625664114823014, guid: 97ccffab2bf7d3f4e87e812eee2b593c, type: 2}
      propertyPath: m_LocalRotation.y
      value: 1
      objectReference: {fileID: 0}
    - target: {fileID: 4625664114823014, guid: 97ccffab2bf7d3f4e87e812eee2b593c, type: 2}
      propertyPath: m_LocalRotation.z
      value: 0
      objectReference: {fileID: 0}
    - target: {fileID: 4625664114823014, guid: 97ccffab2bf7d3f4e87e812eee2b593c, type: 2}
      propertyPath: m_LocalRotation.w
      value: 0
      objectReference: {fileID: 0}
    - target: {fileID: 4625664114823014, guid: 97ccffab2bf7d3f4e87e812eee2b593c, type: 2}
      propertyPath: m_RootOrder
      value: 0
      objectReference: {fileID: 0}
    - target: {fileID: 1687074315377416, guid: 97ccffab2bf7d3f4e87e812eee2b593c, type: 2}
      propertyPath: m_Name
      value: CardPokemonAzulBranco
      objectReference: {fileID: 0}
    - target: {fileID: 114105795695077434, guid: 97ccffab2bf7d3f4e87e812eee2b593c,
        type: 2}
      propertyPath: imgCard
      value: 
      objectReference: {fileID: 2800000, guid: 9709e9d5e14968549b1ac5e3e5d16548, type: 3}
    - target: {fileID: 114105795695077434, guid: 97ccffab2bf7d3f4e87e812eee2b593c,
        type: 2}
      propertyPath: totalManaRequest
      value: 2
      objectReference: {fileID: 0}
    - target: {fileID: 114825248847322750, guid: 97ccffab2bf7d3f4e87e812eee2b593c,
        type: 2}
      propertyPath: totalLife
      value: 6
      objectReference: {fileID: 0}
    - target: {fileID: 114105795695077434, guid: 97ccffab2bf7d3f4e87e812eee2b593c,
        type: 2}
      propertyPath: attackPower
      value: 2
      objectReference: {fileID: 0}
    - target: {fileID: 114105795695077434, guid: 97ccffab2bf7d3f4e87e812eee2b593c,
        type: 2}
      propertyPath: nameCard
      value: Rato
      objectReference: {fileID: 0}
    m_RemovedComponents: []
  m_ParentPrefab: {fileID: 100100000, guid: 97ccffab2bf7d3f4e87e812eee2b593c, type: 2}
  m_IsPrefabParent: 0
--- !u!1001 &1969234685
Prefab:
  m_ObjectHideFlags: 0
  serializedVersion: 2
  m_Modification:
    m_TransformParent: {fileID: 0}
    m_Modifications:
    - target: {fileID: 4625664114823014, guid: 97ccffab2bf7d3f4e87e812eee2b593c, type: 2}
      propertyPath: m_LocalPosition.x
      value: 3.91
      objectReference: {fileID: 0}
    - target: {fileID: 4625664114823014, guid: 97ccffab2bf7d3f4e87e812eee2b593c, type: 2}
      propertyPath: m_LocalPosition.y
      value: 0.3
      objectReference: {fileID: 0}
    - target: {fileID: 4625664114823014, guid: 97ccffab2bf7d3f4e87e812eee2b593c, type: 2}
      propertyPath: m_LocalPosition.z
      value: -5.81
      objectReference: {fileID: 0}
    - target: {fileID: 4625664114823014, guid: 97ccffab2bf7d3f4e87e812eee2b593c, type: 2}
      propertyPath: m_LocalRotation.x
      value: 0
      objectReference: {fileID: 0}
    - target: {fileID: 4625664114823014, guid: 97ccffab2bf7d3f4e87e812eee2b593c, type: 2}
      propertyPath: m_LocalRotation.y
      value: 1
      objectReference: {fileID: 0}
    - target: {fileID: 4625664114823014, guid: 97ccffab2bf7d3f4e87e812eee2b593c, type: 2}
      propertyPath: m_LocalRotation.z
      value: 0
      objectReference: {fileID: 0}
    - target: {fileID: 4625664114823014, guid: 97ccffab2bf7d3f4e87e812eee2b593c, type: 2}
      propertyPath: m_LocalRotation.w
      value: 0
      objectReference: {fileID: 0}
    - target: {fileID: 4625664114823014, guid: 97ccffab2bf7d3f4e87e812eee2b593c, type: 2}
      propertyPath: m_RootOrder
      value: 2
      objectReference: {fileID: 0}
    - target: {fileID: 114105795695077434, guid: 97ccffab2bf7d3f4e87e812eee2b593c,
        type: 2}
      propertyPath: totalManaRequest
      value: 2
      objectReference: {fileID: 0}
    - target: {fileID: 114105795695077434, guid: 97ccffab2bf7d3f4e87e812eee2b593c,
        type: 2}
      propertyPath: attackPower
      value: 2
      objectReference: {fileID: 0}
    - target: {fileID: 114825248847322750, guid: 97ccffab2bf7d3f4e87e812eee2b593c,
        type: 2}
      propertyPath: totalLife
      value: 4
      objectReference: {fileID: 0}
    - target: {fileID: 114105795695077434, guid: 97ccffab2bf7d3f4e87e812eee2b593c,
        type: 2}
      propertyPath: imgCard
      value: 
      objectReference: {fileID: 2800000, guid: 1fa1e964787a59a45820b5c9169fd925, type: 3}
    - target: {fileID: 1687074315377416, guid: 97ccffab2bf7d3f4e87e812eee2b593c, type: 2}
      propertyPath: m_Name
      value: CardDoido
      objectReference: {fileID: 0}
    - target: {fileID: 114105795695077434, guid: 97ccffab2bf7d3f4e87e812eee2b593c,
        type: 2}
      propertyPath: nameCard
      value: "Doid\xE3o"
      objectReference: {fileID: 0}
    m_RemovedComponents: []
  m_ParentPrefab: {fileID: 100100000, guid: 97ccffab2bf7d3f4e87e812eee2b593c, type: 2}
  m_IsPrefabParent: 0
